[gd_scene load_steps=5 format=2]

[ext_resource path="res://tanks/tank.tscn" type="PackedScene" id=1]
[ext_resource path="res://tanks/player.gd" type="Script" id=2]
[ext_resource path="res://assets/onlyObjects_retina_rotated.png" type="Texture" id=3]

[sub_resource type="RectangleShape2D" id=1]

custom_solver_bias = 0.0
extents = Vector2( 10, 10.0891 )

[node name="player" instance=ExtResource( 1 )]

script = ExtResource( 2 )
Bullet = null
speed = 200
rotation_speed = 1.0
gun_cooldown = 0.4
health = 100

[node name="Body" parent="." index="0"]

texture = ExtResource( 3 )
region_enabled = true
region_rect = Rect2( 308, 263, 80, 83 )
_sections_unfolded = [ "Region" ]

[node name="CollisionShape2D" parent="." index="1"]

position = Vector2( -1.25, -0.318222 )
scale = Vector2( 3.80769, 3.77885 )
shape = SubResource( 1 )

[node name="Turret" parent="." index="2"]

texture = ExtResource( 3 )
offset = Vector2( 20, 0 )
region_enabled = true
region_rect = Rect2( 686, 15, 57, 23 )
_sections_unfolded = [ "Offset", "Region" ]

[node name="Muzzle" parent="Turret" index="0"]

position = Vector2( 53, 0.25 )


